br\senai\sp\dao\SubtarefaDao.class
br\senai\sp\controller\SubtarefaController.class
br\senai\sp\controller\TarefaController.class
br\senai\sp\dao\UsuarioDao.class
br\senai\sp\modelo\Usuario.class
br\senai\sp\dao\SubtarefaDaoJDBC.class
br\senai\sp\modelo\TokenJWT.class
br\senai\sp\controller\UsuarioController.class
br\senai\sp\interceptor\JWTInterceptor.class
br\senai\sp\modelo\Tarefa.class
br\senai\sp\dao\TarefaDao.class
br\senai\sp\modelo\Subtarefa.class
